{
	"info": {
		"_postman_id": "072aded6-efb7-4184-8385-c3c079844edf",
		"name": "Final Project Social Network",
		"schema": "https://schema.getpostman.com/json/collection/v2.1.0/collection.json"
	},
	"item": [
		{
			"name": "Registration",
			"item": [
				{
					"name": "Create User Successfully",
					"event": [
						{
							"listen": "test",
							"script": {
								"id": "2c12e9d1-6f95-4e68-a99a-f9fdb546404d",
								"exec": [
									"pm.test(\"Status code is 200\", function () {",
									"    pm.response.to.have.status(200);",
									"});",
									"",
									""
								],
								"type": "text/javascript"
							}
						}
					],
					"request": {
						"method": "POST",
						"header": [
							{
								"key": "Content-Type",
								"name": "Content-Type",
								"type": "text",
								"value": "application/json"
							}
						],
						"body": {
							"mode": "raw",
							"raw": "{\n\n    \"username\": \"{{User1username}}\",\n    \"password\": \"{{password}}\",\n    \"email\": \"{{User1email}}\"\n\n}",
							"options": {
								"raw": {
									"language": "json"
								}
							}
						},
						"url": {
							"raw": "{{mockURL}}/CreateUser1Positive",
							"host": [
								"{{mockURL}}"
							],
							"path": [
								"CreateUser1Positive"
							]
						}
					},
					"response": [
						{
							"name": "CreateUser3Positive",
							"originalRequest": {
								"method": "POST",
								"header": [
									{
										"key": "Content-Type",
										"name": "Content-Type",
										"value": "application/json",
										"type": "text"
									}
								],
								"body": {
									"mode": "raw",
									"raw": "{\n\n    \"username\": \"joeJ3\",\n    \"password\": \"asdf\",\n    \"email\": \"jonjonson3@abv.bg\"\n\n}",
									"options": {
										"raw": {
											"language": "json"
										}
									}
								},
								"url": {
									"raw": "{{mockURL}}/CreateUser3Positive",
									"host": [
										"{{mockURL}}"
									],
									"path": [
										"CreateUser3Positive"
									]
								}
							},
							"status": "OK",
							"code": 200,
							"_postman_previewlanguage": "json",
							"header": [
								{
									"key": "Access-Control-Allow-Origin",
									"value": "*"
								},
								{
									"key": "Content-Encoding",
									"value": "gzip"
								},
								{
									"key": "Content-Type",
									"value": "application/json; charset=utf-8"
								},
								{
									"key": "Date",
									"value": "Thu, 07 Nov 2019 18:52:48 GMT"
								},
								{
									"key": "ETag",
									"value": "W/\"af-GpPmRW0ySclCbQDmlVYDXw7rYA4\""
								},
								{
									"key": "Server",
									"value": "nginx"
								},
								{
									"key": "Vary",
									"value": "Accept-Encoding"
								},
								{
									"key": "x-srv-span",
									"value": "v=1;s=69d466fafc5fe717"
								},
								{
									"key": "x-srv-trace",
									"value": "v=1;t=85bf62a7522f9728"
								},
								{
									"key": "Content-Length",
									"value": "227"
								},
								{
									"key": "Connection",
									"value": "keep-alive"
								}
							],
							"cookie": [],
							"body": "{\n    \"id\": 3,\n    \"username\": \"joeJ3\",\n    \"firstName\": \"Joe\",\n    \"lastName\": \"Jonson\",\n    \"password\": \"asdf\",\n    \"email\": \"jonjonson3@abv.bg\",\n    \"picture\": null,\n    \"age\": 35,\n    \"country\": {\n        \"id\": 3,\n        \"country\": \"Japan\"\n    },\n    \"jobTitle\": \"Coffee Shop Manager\",\n    \"enabled\": true,\n    \"picture_visibility\": false,\n    \"profile_visibility\": false\n}"
						},
						{
							"name": "CreateUser1NoUsername",
							"originalRequest": {
								"method": "POST",
								"header": [
									{
										"key": "Content-Type",
										"name": "Content-Type",
										"value": "application/json",
										"type": "text"
									}
								],
								"body": {
									"mode": "raw",
									"raw": "{\n   \n    \"password\": \"asdf\",\n    \"email\": \"jonjonson1@abv.bg\"\n\n}",
									"options": {
										"raw": {
											"language": "json"
										}
									}
								},
								"url": {
									"raw": "{{mockURL}}/CreateUser1NoUsername",
									"host": [
										"{{mockURL}}"
									],
									"path": [
										"CreateUser1NoUsername"
									]
								}
							},
							"status": "Bad Request",
							"code": 400,
							"_postman_previewlanguage": "json",
							"header": [
								{
									"key": "Access-Control-Allow-Origin",
									"value": "*"
								},
								{
									"key": "Content-Encoding",
									"value": "gzip"
								},
								{
									"key": "Content-Type",
									"value": "application/json; charset=utf-8"
								},
								{
									"key": "Date",
									"value": "Thu, 07 Nov 2019 18:56:12 GMT"
								},
								{
									"key": "ETag",
									"value": "W/\"af-GpPmRW0ySclCbQDmlVYDXw7rYA4\""
								},
								{
									"key": "Server",
									"value": "nginx"
								},
								{
									"key": "Vary",
									"value": "Accept-Encoding"
								},
								{
									"key": "x-srv-span",
									"value": "v=1;s=69d466fafc5fe717"
								},
								{
									"key": "x-srv-trace",
									"value": "v=1;t=85bf62a7522f9728"
								},
								{
									"key": "Content-Length",
									"value": "225"
								},
								{
									"key": "Connection",
									"value": "keep-alive"
								}
							],
							"cookie": [],
							"body": "{\n    \"error\": {\n    \t\"name\": \"registrationNotSuccessfulNoUsername\",\n    \t\"message\": \"Username/password can't be empty!\"\n    \t\n    }\n    \n}"
						},
						{
							"name": "CreateUser1NoPassword",
							"originalRequest": {
								"method": "POST",
								"header": [
									{
										"key": "Content-Type",
										"name": "Content-Type",
										"value": "application/json",
										"type": "text"
									}
								],
								"body": {
									"mode": "raw",
									"raw": "{\n   \n    \"username\": \"joeJ1\",\n    \"email\": \"jonjonson1@abv.bg\"\n\n}",
									"options": {
										"raw": {
											"language": "json"
										}
									}
								},
								"url": {
									"raw": "{{mockURL}}/CreateUser1NoPassword",
									"host": [
										"{{mockURL}}"
									],
									"path": [
										"CreateUser1NoPassword"
									]
								}
							},
							"status": "Bad Request",
							"code": 400,
							"_postman_previewlanguage": "json",
							"header": [
								{
									"key": "Access-Control-Allow-Origin",
									"value": "*"
								},
								{
									"key": "Content-Type",
									"value": "application/json; charset=utf-8"
								},
								{
									"key": "Date",
									"value": "Thu, 07 Nov 2019 19:15:57 GMT"
								},
								{
									"key": "ETag",
									"value": "W/\"af-GpPmRW0ySclCbQDmlVYDXw7rYA4\""
								},
								{
									"key": "Server",
									"value": "nginx"
								},
								{
									"key": "Vary",
									"value": "Accept-Encoding"
								},
								{
									"key": "x-srv-span",
									"value": "v=1;s=69d466fafc5fe717"
								},
								{
									"key": "x-srv-trace",
									"value": "v=1;t=85bf62a7522f9728"
								},
								{
									"key": "Content-Length",
									"value": "210"
								},
								{
									"key": "Connection",
									"value": "keep-alive"
								}
							],
							"cookie": [],
							"body": "{\n    \"error\": {\n        \"name\": \"registrationNotSuccessfulNoPassword\",\n        \"message\": \"Username/password can't be empty!\"\n    }\n}"
						},
						{
							"name": "CreateUser1NoEmail",
							"originalRequest": {
								"method": "POST",
								"header": [
									{
										"key": "Content-Type",
										"name": "Content-Type",
										"value": "application/json",
										"type": "text"
									}
								],
								"body": {
									"mode": "raw",
									"raw": "{\n   \n    \"username\": \"joeJ1\",\n    \"password\": \"asdf\"\n\n}",
									"options": {
										"raw": {
											"language": "json"
										}
									}
								},
								"url": {
									"raw": "{{mockURL}}/CreateUser1NoEmail",
									"host": [
										"{{mockURL}}"
									],
									"path": [
										"CreateUser1NoEmail"
									]
								}
							},
							"status": "Bad Request",
							"code": 400,
							"_postman_previewlanguage": "json",
							"header": [
								{
									"key": "Access-Control-Allow-Origin",
									"value": "*"
								},
								{
									"key": "Content-Type",
									"value": "application/json; charset=utf-8"
								},
								{
									"key": "Date",
									"value": "Thu, 07 Nov 2019 19:15:57 GMT"
								},
								{
									"key": "ETag",
									"value": "W/\"af-GpPmRW0ySclCbQDmlVYDXw7rYA4\""
								},
								{
									"key": "Server",
									"value": "nginx"
								},
								{
									"key": "Vary",
									"value": "Accept-Encoding"
								},
								{
									"key": "x-srv-span",
									"value": "v=1;s=69d466fafc5fe717"
								},
								{
									"key": "x-srv-trace",
									"value": "v=1;t=85bf62a7522f9728"
								},
								{
									"key": "Content-Length",
									"value": "210"
								},
								{
									"key": "Connection",
									"value": "keep-alive"
								}
							],
							"cookie": [],
							"body": "{\n    \"error\": {\n        \"name\": \"registrationNotSuccessfulNoEmail\",\n        \"message\": \"Registration was not successful due to no email credential provided. Please provide correct email!\"\n    }\n}"
						},
						{
							"name": "CreateUser3withExistingUsername",
							"originalRequest": {
								"method": "POST",
								"header": [
									{
										"key": "Content-Type",
										"name": "Content-Type",
										"value": "application/json",
										"type": "text"
									}
								],
								"body": {
									"mode": "raw",
									"raw": "{\n\n    \"username\": \"joeJ1\",\n    \"password\": \"asdf\",\n    \"email\": \"jonjonson3@abv.bg\"\n\n}",
									"options": {
										"raw": {
											"language": "json"
										}
									}
								},
								"url": {
									"raw": "{{mockURL}}/CreateUser3withExistingUsername",
									"host": [
										"{{mockURL}}"
									],
									"path": [
										"CreateUser3withExistingUsername"
									]
								}
							},
							"status": "Bad Request",
							"code": 400,
							"_postman_previewlanguage": "json",
							"header": [
								{
									"key": "Access-Control-Allow-Origin",
									"value": "*"
								},
								{
									"key": "Content-Type",
									"value": "application/json; charset=utf-8"
								},
								{
									"key": "Date",
									"value": "Thu, 07 Nov 2019 19:15:57 GMT"
								},
								{
									"key": "ETag",
									"value": "W/\"af-GpPmRW0ySclCbQDmlVYDXw7rYA4\""
								},
								{
									"key": "Server",
									"value": "nginx"
								},
								{
									"key": "Vary",
									"value": "Accept-Encoding"
								},
								{
									"key": "x-srv-span",
									"value": "v=1;s=69d466fafc5fe717"
								},
								{
									"key": "x-srv-trace",
									"value": "v=1;t=85bf62a7522f9728"
								},
								{
									"key": "Content-Length",
									"value": "210"
								},
								{
									"key": "Connection",
									"value": "keep-alive"
								}
							],
							"cookie": [],
							"body": "{\n    \"error\": {\n        \"name\": \"registrationNotSuccessfulUsernameAlreadyRegistered\",\n        \"message\": \"User with same username already exists!\"\n    }\n}"
						},
						{
							"name": "CreateUser2Positive",
							"originalRequest": {
								"method": "POST",
								"header": [
									{
										"key": "Content-Type",
										"name": "Content-Type",
										"value": "application/json",
										"type": "text"
									}
								],
								"body": {
									"mode": "raw",
									"raw": "{\r\n      \"username\": \"joeJ2\",\r\n      \"password\": \"asdf\",\r\n      \"email\": \"jonjonson2@abv.bg\"\r\n\r\n    }",
									"options": {
										"raw": {
											"language": "json"
										}
									}
								},
								"url": {
									"raw": "{{mockURL}}/CreateUser2",
									"host": [
										"{{mockURL}}"
									],
									"path": [
										"CreateUser2"
									]
								}
							},
							"status": "OK",
							"code": 200,
							"_postman_previewlanguage": "json",
							"header": [
								{
									"key": "Access-Control-Allow-Origin",
									"value": "*"
								},
								{
									"key": "Content-Encoding",
									"value": "gzip"
								},
								{
									"key": "Content-Type",
									"value": "application/json; charset=utf-8"
								},
								{
									"key": "Date",
									"value": "Thu, 07 Nov 2019 18:32:34 GMT"
								},
								{
									"key": "ETag",
									"value": "W/\"af-GpPmRW0ySclCbQDmlVYDXw7rYA4\""
								},
								{
									"key": "Server",
									"value": "nginx"
								},
								{
									"key": "Vary",
									"value": "Accept-Encoding"
								},
								{
									"key": "x-srv-span",
									"value": "v=1;s=69d466fafc5fe717"
								},
								{
									"key": "x-srv-trace",
									"value": "v=1;t=85bf62a7522f9728"
								},
								{
									"key": "Content-Length",
									"value": "148"
								},
								{
									"key": "Connection",
									"value": "keep-alive"
								}
							],
							"cookie": [],
							"body": "{\r\n      \"id\": 2,\r\n      \"username\": \"joeJ2\",\r\n      \"firstName\": \"Joel\",\r\n      \"lastName\": \"Johnson\",\r\n      \"password\": \"asdf\",\r\n      \"email\": \"jonjonson2@abv.bg\",\r\n      \"picture\": null,\r\n      \"age\": 18,\r\n      \"country\": {\r\n        \"id\": 3,\r\n        \"country\": \"Japan\"\r\n      },\r\n      \"jobTitle\": \"Teacher at Telerik Academy\",\r\n      \"enabled\": true,\r\n      \"picture_visibility\": false,\r\n      \"profile_visibility\": false\r\n    }"
						},
						{
							"name": "CreateUser1Positive",
							"originalRequest": {
								"method": "POST",
								"header": [
									{
										"key": "Content-Type",
										"name": "Content-Type",
										"type": "text",
										"value": "application/json"
									}
								],
								"body": {
									"mode": "raw",
									"raw": "{\n\n    \"username\": \"joeJ1\",\n    \"password\": \"asdf\",\n    \"email\": \"jonjonson1@abv.bg\"\n\n}",
									"options": {
										"raw": {
											"language": "json"
										}
									}
								},
								"url": {
									"raw": "{{mockURL}}/CreateUser1Positive",
									"host": [
										"{{mockURL}}"
									],
									"path": [
										"CreateUser1Positive"
									]
								}
							},
							"status": "OK",
							"code": 200,
							"_postman_previewlanguage": "json",
							"header": [
								{
									"key": "Access-Control-Allow-Origin",
									"value": "*"
								},
								{
									"key": "Content-Encoding",
									"value": "gzip"
								},
								{
									"key": "Content-Type",
									"value": "application/json; charset=utf-8"
								},
								{
									"key": "Date",
									"value": "Thu, 07 Nov 2019 18:52:48 GMT"
								},
								{
									"key": "ETag",
									"value": "W/\"af-GpPmRW0ySclCbQDmlVYDXw7rYA4\""
								},
								{
									"key": "Server",
									"value": "nginx"
								},
								{
									"key": "Vary",
									"value": "Accept-Encoding"
								},
								{
									"key": "x-srv-span",
									"value": "v=1;s=69d466fafc5fe717"
								},
								{
									"key": "x-srv-trace",
									"value": "v=1;t=85bf62a7522f9728"
								},
								{
									"key": "Content-Length",
									"value": "227"
								},
								{
									"key": "Connection",
									"value": "keep-alive"
								}
							],
							"cookie": [],
							"body": "{\r\n      \"id\": 1,\r\n      \"username\": \"{{username}}\",\r\n      \"firstName\": \"Joel\",\r\n      \"lastName\": \"Johnson\",\r\n      \"password\": \"{{password}}\",\r\n      \"email\": \"{{email}}\",\r\n      \"picture\": null,\r\n      \"age\": 38,\r\n      \"country\": {\r\n        \"id\": 3,\r\n        \"country\": \"Japan\"\r\n      },\r\n      \"jobTitle\": \"Student at Telerik Academy\",\r\n      \"enabled\": true,\r\n      \"picture_visibility\": false,\r\n      \"profile_visibility\": false\r\n    }"
						},
						{
							"name": "CreateUser3withExistingEmail",
							"originalRequest": {
								"method": "POST",
								"header": [
									{
										"key": "Content-Type",
										"name": "Content-Type",
										"value": "application/json",
										"type": "text"
									}
								],
								"body": {
									"mode": "raw",
									"raw": "{\n\n    \"username\": \"joeJ3\",\n    \"password\": \"asdf\",\n    \"email\": \"jonjonson1@abv.bg\"\n\n}",
									"options": {
										"raw": {
											"language": "json"
										}
									}
								},
								"url": {
									"raw": "{{mockURL}}/CreateUser3withExistingEmail",
									"host": [
										"{{mockURL}}"
									],
									"path": [
										"CreateUser3withExistingEmail"
									]
								}
							},
							"status": "Bad Request",
							"code": 400,
							"_postman_previewlanguage": "json",
							"header": [
								{
									"key": "Access-Control-Allow-Origin",
									"value": "*"
								},
								{
									"key": "Content-Type",
									"value": "application/json; charset=utf-8"
								},
								{
									"key": "Date",
									"value": "Thu, 07 Nov 2019 19:15:57 GMT"
								},
								{
									"key": "ETag",
									"value": "W/\"af-GpPmRW0ySclCbQDmlVYDXw7rYA4\""
								},
								{
									"key": "Server",
									"value": "nginx"
								},
								{
									"key": "Vary",
									"value": "Accept-Encoding"
								},
								{
									"key": "x-srv-span",
									"value": "v=1;s=69d466fafc5fe717"
								},
								{
									"key": "x-srv-trace",
									"value": "v=1;t=85bf62a7522f9728"
								},
								{
									"key": "Content-Length",
									"value": "210"
								},
								{
									"key": "Connection",
									"value": "keep-alive"
								}
							],
							"cookie": [],
							"body": "{\n    \"error\": {\n        \"name\": \"registrationNotSuccessfulEmailRegistered\",\n        \"message\": \"This email already exists!\"\n    }\n}"
						}
					]
				},
				{
					"name": "Create User without Username",
					"event": [
						{
							"listen": "test",
							"script": {
								"id": "affe080e-ce08-4710-9669-4b235b8a0e3f",
								"exec": [
									"pm.test(\"Status code is 400\", function () {",
									"    pm.response.to.have.status(400);",
									"});",
									"",
									"pm.test(\"Verify correct message appears\", function () {",
									"    var jsonData = pm.response.json();",
									"    pm.expect(jsonData.error.message).to.eql(pm.environment.get(\"msgMissingUsername/Password\"));",
									"});"
								],
								"type": "text/javascript"
							}
						}
					],
					"request": {
						"method": "POST",
						"header": [
							{
								"key": "Content-Type",
								"name": "Content-Type",
								"type": "text",
								"value": "application/json"
							}
						],
						"body": {
							"mode": "raw",
							"raw": "{\n   \n    \"password\": \"{{password}}\",\n    \"email\": \"{{User1email}}\"\n\n}",
							"options": {
								"raw": {
									"language": "json"
								}
							}
						},
						"url": {
							"raw": "{{mockURL}}/CreateUser1NoUsername",
							"host": [
								"{{mockURL}}"
							],
							"path": [
								"CreateUser1NoUsername"
							]
						}
					},
					"response": []
				},
				{
					"name": "Create User without Password",
					"event": [
						{
							"listen": "test",
							"script": {
								"id": "0e6a117e-3894-41fe-9521-d7a2cbef70ad",
								"exec": [
									"pm.test(\"Status code is 400\", function () {",
									"    pm.response.to.have.status(400);",
									"});",
									"",
									"pm.test(\"Verify correct message appears\", function () {",
									"    var jsonData = pm.response.json();",
									"    pm.expect(jsonData.error.message).to.eql(pm.environment.get(\"msgMissingUsername/Password\"));",
									"});"
								],
								"type": "text/javascript"
							}
						}
					],
					"request": {
						"method": "POST",
						"header": [
							{
								"key": "Content-Type",
								"name": "Content-Type",
								"type": "text",
								"value": "application/json"
							}
						],
						"body": {
							"mode": "raw",
							"raw": "{\n   \n    \"username\": \"{{User1username}}\",\n    \"email\": \"{{email}}\"\n\n}",
							"options": {
								"raw": {
									"language": "json"
								}
							}
						},
						"url": {
							"raw": "{{mockURL}}/CreateUser1NoPassword",
							"host": [
								"{{mockURL}}"
							],
							"path": [
								"CreateUser1NoPassword"
							]
						}
					},
					"response": []
				},
				{
					"name": "Create User without Email",
					"event": [
						{
							"listen": "test",
							"script": {
								"id": "1412522e-e210-4124-9559-c80b871c20a6",
								"exec": [
									"pm.test(\"Status code is 400\", function () {",
									"    pm.response.to.have.status(400);",
									"});",
									"",
									"pm.test(\"Verify correct message appears\", function () {",
									"    var jsonData = pm.response.json();",
									"    pm.expect(jsonData.error.message).to.eql(pm.environment.get(\"msgMissingEmail\"));",
									"});"
								],
								"type": "text/javascript"
							}
						}
					],
					"request": {
						"method": "POST",
						"header": [
							{
								"key": "Content-Type",
								"name": "Content-Type",
								"type": "text",
								"value": "application/json"
							}
						],
						"body": {
							"mode": "raw",
							"raw": "{\n   \n    \"username\": \"{{User1username}}\",\n    \"password\": \"{{password}}\"\n\n}",
							"options": {
								"raw": {
									"language": "json"
								}
							}
						},
						"url": {
							"raw": "{{mockURL}}/CreateUser1NoEmail",
							"host": [
								"{{mockURL}}"
							],
							"path": [
								"CreateUser1NoEmail"
							]
						}
					},
					"response": []
				},
				{
					"name": "Create User with Existing Username",
					"event": [
						{
							"listen": "test",
							"script": {
								"id": "ae5c3f69-4a8f-4b70-bfc1-8310a0d4e18d",
								"exec": [
									"pm.test(\"Status code is 403\", function () {",
									"    pm.response.to.have.status(403);",
									"});",
									"",
									"pm.test(\"Verify correct message appears\", function () {",
									"    var jsonData = pm.response.json();",
									"    pm.expect(jsonData.error.message).to.eql(pm.environment.get(\"msgExisingUsername\"));",
									"});"
								],
								"type": "text/javascript"
							}
						}
					],
					"request": {
						"method": "POST",
						"header": [
							{
								"key": "Content-Type",
								"name": "Content-Type",
								"type": "text",
								"value": "application/json"
							}
						],
						"body": {
							"mode": "raw",
							"raw": "{\n\n    \"username\": \"{{User1username}}\",\n    \"password\": \"{{password}}\",\n    \"email\": \"{{User3email}}\"\n\n}",
							"options": {
								"raw": {
									"language": "json"
								}
							}
						},
						"url": {
							"raw": "{{mockURL}}/CreateUser3withExistingUsername",
							"host": [
								"{{mockURL}}"
							],
							"path": [
								"CreateUser3withExistingUsername"
							]
						}
					},
					"response": []
				},
				{
					"name": "Create User with Existing Email",
					"event": [
						{
							"listen": "test",
							"script": {
								"id": "a1c9f2aa-9b6f-4589-a386-e9ecce300402",
								"exec": [
									"pm.test(\"Status code is 403\", function () {",
									"    pm.response.to.have.status(403);",
									"});",
									"",
									"pm.test(\"Verify correct message appears\", function () {",
									"    var jsonData = pm.response.json();",
									"    pm.expect(jsonData.error.message).to.eql(pm.environment.get(\"msgExistingEmail\"));",
									"});"
								],
								"type": "text/javascript"
							}
						}
					],
					"request": {
						"method": "POST",
						"header": [
							{
								"key": "Content-Type",
								"name": "Content-Type",
								"type": "text",
								"value": "application/json"
							}
						],
						"body": {
							"mode": "raw",
							"raw": "{\n\n    \"username\": \"{{User3username}}\",\n    \"password\": \"{{password}}\",\n    \"email\": \"{{User1email}}\"\n\n}",
							"options": {
								"raw": {
									"language": "json"
								}
							}
						},
						"url": {
							"raw": "{{mockURL}}/CreateUser3withExistingEmail",
							"host": [
								"{{mockURL}}"
							],
							"path": [
								"CreateUser3withExistingEmail"
							]
						}
					},
					"response": []
				}
			],
			"protocolProfileBehavior": {}
		},
		{
			"name": "User actions related to Posts",
			"item": [
				{
					"name": "Get Number of User's Exising Posts",
					"event": [
						{
							"listen": "test",
							"script": {
								"id": "4b373f2b-f307-405e-a3d6-7c87ab74352b",
								"exec": [
									"// Gets the number of existing posts of the logged User and sets Environment Variable numExistPosts",
									"",
									"    var jsonData = pm.response.json();",
									"    let len = jsonData.length;",
									"    console.log(len);",
									"    pm.environment.set(\"numExistPosts\", len);",
									"    console.log(pm.environment.get(\"numExistPosts\"));",
									"",
									"",
									""
								],
								"type": "text/javascript"
							}
						}
					],
					"request": {
						"method": "GET",
						"header": [],
						"url": {
							"raw": "{{baseURL}}/api/users/my-posts?id={{loggedUserID}}",
							"host": [
								"{{baseURL}}"
							],
							"path": [
								"api",
								"users",
								"my-posts"
							],
							"query": [
								{
									"key": "id",
									"value": "{{loggedUserID}}"
								}
							]
						}
					},
					"response": []
				},
				{
					"name": "Create New Post with Public Status as a Registered User",
					"event": [
						{
							"listen": "test",
							"script": {
								"id": "f52fa980-8cdc-4160-a846-6fb2b4ecdebf",
								"exec": [
									"// The below script identifies and sets as variable the ID of the current Post, which after execution will be the lastPostID;",
									"let jsonData = pm.response.json();",
									"let lastPostID = jsonData.id;",
									"pm.environment.set(\"lastPostID\", lastPostID)",
									"",
									"// The below scripts are the Test Cases;  ",
									"pm.test(\"Status code is 200\", function () {",
									"    pm.response.to.have.status(200);",
									"});",
									"",
									"pm.test(\"Verify response Title is as the input Title\", function(){",
									"    let jsonData = pm.response.json();",
									"    pm.expect(jsonData.title).to.eql(pm.environment.get(\"postTitle\"));",
									"});",
									"",
									"",
									"pm.test(\"Verify that a Post's body matches the input Text Body String\", function () {",
									"    let jsonData = pm.response.json();",
									"    pm.expect(jsonData.text).to.eql(pm.environment.get(\"postText\"));",
									"});",
									"",
									"pm.test(\"Verify that a Post is linked to a correct User\", function () {",
									"    let jsonData = pm.response.json();",
									"    console.log(jsonData.creator.username);",
									"    pm.expect(jsonData.creator.username).to.eql(pm.collectionVariables.get(\"User1username\"));",
									"});",
									"",
									"pm.test(\"Verify that a Post is set to Public status\", function () {",
									"    let jsonData = pm.response.json();",
									"    // The below line converts the env.variable postStatus to a boolean variable \"status\"",
									"    let status = Boolean(pm.environment.get(\"postStatus\"));",
									"    pm.expect(jsonData.visible).to.eql(true);",
									"});",
									"",
									"pm.test(\"Verify Public Post is listed\", function () {",
									"    let URL = pm.environment.get(\"baseURL\") +\"/api/users/my-posts?id=\"+ pm.environment.get(\"loggedUserID\");",
									"    console.log(pm.environment.get(\"loggedUserID\"));",
									"    let isPostNumberIncreased = null;",
									"    let numPosts = 0;",
									"    let status = null;",
									"    pm.sendRequest(",
									"        URL , function (err, response) {",
									"        numPosts = response.json().length;",
									"        console.log(numPosts);",
									"        pm.environment.get(\"numExistPosts\")",
									"        if(numPosts > pm.environment.get(\"numExistPosts\")){",
									"            isPostNumberIncreased = true;",
									"        }",
									"        else {",
									"            isPostNumberIncreased = false;",
									"        }",
									"         pm.environment.set(\"numExistPosts\", numPosts);",
									"         pm.expect(isPostNumberIncreased).to.eql(true);",
									"    });",
									"});"
								],
								"type": "text/javascript"
							}
						},
						{
							"listen": "prerequest",
							"script": {
								"id": "5eecaefc-af6c-4702-87ff-5a69ab374517",
								"exec": [
									""
								],
								"type": "text/javascript"
							}
						}
					],
					"request": {
						"method": "POST",
						"header": [
							{
								"key": "Content-Type",
								"name": "Content-Type",
								"value": "application/json",
								"type": "text"
							}
						],
						"body": {
							"mode": "raw",
							"raw": "{\r\n  \"picture\": \"picture\",\r\n  \"text\": \"{{postText}}\",\r\n  \"title\": \"{{postTitle}}\",\r\n  \"visible\": true\r\n}",
							"options": {
								"raw": {
									"language": "json"
								}
							}
						},
						"url": {
							"raw": "{{baseURL}}/api/posts",
							"host": [
								"{{baseURL}}"
							],
							"path": [
								"api",
								"posts"
							]
						}
					},
					"response": []
				},
				{
					"name": "Create New Post with Private Status as a Registered User",
					"event": [
						{
							"listen": "test",
							"script": {
								"id": "06c7ff56-e838-4cd7-986d-9093e134f6bd",
								"exec": [
									"// The below script identifies and sets as variable the ID of the current Post, which after execution will be the lastPostID;",
									"let jsonData = pm.response.json();",
									"let lastPostID = jsonData.id;",
									"pm.environment.set(\"lastPostID\", lastPostID)",
									"",
									"",
									"",
									"// The below scripts are the Test Cases;  ",
									"pm.test(\"Status code is 200\", function () {",
									"    pm.response.to.have.status(200);",
									"});",
									"",
									"pm.test(\"Verify response Title is as the input Title\", function(){",
									"    let jsonData = pm.response.json();",
									"    pm.expect(jsonData.title).to.eql(pm.environment.get(\"postTitle\"));",
									"});",
									"",
									"",
									"pm.test(\"Verify that a Post's body matches the input Text Body String\", function () {",
									"    let jsonData = pm.response.json();",
									"    pm.expect(jsonData.text).to.eql(pm.environment.get(\"postText\"));",
									"});",
									"",
									"pm.test(\"Verify that a Post is linked to a correct User\", function () {",
									"    let jsonData = pm.response.json();",
									"    console.log(jsonData.creator.username);",
									"    pm.expect(jsonData.creator.username).to.eql(pm.collectionVariables.get(\"User1username\"));",
									"});",
									"",
									"pm.test(\"Verify that a Post is set to Private status\", function () {",
									"    let jsonData = pm.response.json();",
									"    // The below line converts the env.variable postStatus to a boolean variable \"status\"",
									"    let status = Boolean(pm.environment.get(\"postStatus\"));",
									"    pm.expect(jsonData.visible).to.eql(false);",
									"});",
									"",
									"pm.test(\"Verify Private Post is listed\", function () {",
									"    let URL = pm.environment.get(\"baseURL\") +\"/api/users/my-posts?id=\"+ pm.environment.get(\"loggedUserID\");",
									"    console.log(pm.environment.get(\"loggedUserID\"));",
									"    let isPostNumberIncreased = null;",
									"    let numPosts = 0;",
									"    let status = null;",
									"    pm.sendRequest(",
									"        URL , function (err, response) {",
									"        numPosts = response.json().length;",
									"        console.log(numPosts);",
									"        console.log(pm.environment.get(\"numExistPosts\"));",
									"        if(numPosts > pm.environment.get(\"numExistPosts\")){",
									"            isPostNumberIncreased = true;",
									"        }",
									"        else {",
									"            isPostNumberIncreased = false;",
									"        }",
									"        pm.environment.set(\"numExistPosts\", numPosts);",
									"         pm.expect(isPostNumberIncreased).to.eql(true);",
									"    });",
									"});"
								],
								"type": "text/javascript"
							}
						},
						{
							"listen": "prerequest",
							"script": {
								"id": "8c7faf88-75c1-4ecd-88aa-21e3153590b3",
								"exec": [
									""
								],
								"type": "text/javascript"
							}
						}
					],
					"request": {
						"method": "POST",
						"header": [
							{
								"key": "Content-Type",
								"name": "Content-Type",
								"type": "text",
								"value": "application/json"
							}
						],
						"body": {
							"mode": "raw",
							"raw": "{\r\n  \"picture\": \"Test\",\r\n  \"text\": \"{{postText}}\",\r\n  \"title\": \"{{postTitle}}\",\r\n  \"visible\": false\r\n}",
							"options": {
								"raw": {
									"language": "json"
								}
							}
						},
						"url": {
							"raw": "{{baseURL}}/api/posts",
							"host": [
								"{{baseURL}}"
							],
							"path": [
								"api",
								"posts"
							]
						}
					},
					"response": []
				},
				{
					"name": "Edit Owned Post",
					"event": [
						{
							"listen": "test",
							"script": {
								"id": "2be16368-b77f-4191-acd7-0da5a2a406e9",
								"exec": [
									"pm.test(\"Status code is 200\", function () {",
									"    pm.response.to.have.status(200);",
									"});",
									"",
									"pm.test(\"Verify post title was updated\", function () {",
									"    var jsonData = pm.response.json();",
									"    pm.expect(jsonData.title).not.eql(pm.environment.get(\"postTitle\"));",
									"});",
									"",
									"pm.test(\"Verify post text body was updated\", function () {",
									"    var jsonData = pm.response.json();",
									"    pm.expect(jsonData.title).not.eql(pm.environment.get(\"postText\"));",
									"});",
									"",
									"pm.test(\"Verify post visibility status is updated\", function () {",
									"    var jsonData = pm.response.json();",
									"    pm.expect(jsonData.title).not.eql(\"true\");",
									"});"
								],
								"type": "text/javascript"
							}
						}
					],
					"request": {
						"method": "PUT",
						"header": [
							{
								"key": "Content-Type",
								"name": "Content-Type",
								"value": "application/json",
								"type": "text"
							}
						],
						"body": {
							"mode": "raw",
							"raw": "{\r\n\t\"title\": \"{{editPostTitle}}\",\r\n    \"text\": \"{{editPostText}}\",\r\n\t\"visible\": true\r\n}",
							"options": {
								"raw": {
									"language": "json"
								}
							}
						},
						"url": {
							"raw": "{{baseURL}}/api/posts/edit?postId={{lastPostID}}",
							"host": [
								"{{baseURL}}"
							],
							"path": [
								"api",
								"posts",
								"edit"
							],
							"query": [
								{
									"key": "postId",
									"value": "{{lastPostID}}"
								}
							]
						}
					},
					"response": []
				},
				{
					"name": "Edit not Owned Post",
					"event": [
						{
							"listen": "test",
							"script": {
								"id": "2be16368-b77f-4191-acd7-0da5a2a406e9",
								"exec": [
									"pm.test(\"Status code is 401\", function () {",
									"    pm.response.to.have.status(401);",
									"});",
									""
								],
								"type": "text/javascript"
							}
						}
					],
					"request": {
						"auth": {
							"type": "basic",
							"basic": [
								{
									"key": "username",
									"value": "joeJ2",
									"type": "string"
								},
								{
									"key": "password",
									"value": "asdf",
									"type": "string"
								}
							]
						},
						"method": "PUT",
						"header": [
							{
								"key": "Content-Type",
								"name": "Content-Type",
								"type": "text",
								"value": "application/json"
							}
						],
						"body": {
							"mode": "raw",
							"raw": "{\r\n\t\"title\": \"This title should not exist\",\r\n    \"text\": \"{{editPostText}}\",\r\n\t\"visible\": true\r\n}",
							"options": {
								"raw": {
									"language": "json"
								}
							}
						},
						"url": {
							"raw": "{{baseURL}}/api/posts/edit?postId={{lastPostID}}",
							"host": [
								"{{baseURL}}"
							],
							"path": [
								"api",
								"posts",
								"edit"
							],
							"query": [
								{
									"key": "postId",
									"value": "{{lastPostID}}"
								}
							]
						}
					},
					"response": []
				},
				{
					"name": "Edit Post without Login",
					"event": [
						{
							"listen": "test",
							"script": {
								"id": "2be16368-b77f-4191-acd7-0da5a2a406e9",
								"exec": [
									"pm.test(\"Status code is 401\", function () {",
									"    pm.response.to.have.status(401);",
									"});",
									"",
									""
								],
								"type": "text/javascript"
							}
						}
					],
					"request": {
						"auth": {
							"type": "noauth"
						},
						"method": "PUT",
						"header": [
							{
								"key": "Content-Type",
								"name": "Content-Type",
								"type": "text",
								"value": "application/json"
							}
						],
						"body": {
							"mode": "raw",
							"raw": "{\r\n\t\"title\": \"EDIT not login\",\r\n    \"text\": \"Not logged in!\"\r\n\t\r\n}",
							"options": {
								"raw": {
									"language": "json"
								}
							}
						},
						"url": {
							"raw": "{{baseURL}}/api/posts/edit?postId={{lastPostID}}",
							"host": [
								"{{baseURL}}"
							],
							"path": [
								"api",
								"posts",
								"edit"
							],
							"query": [
								{
									"key": "postId",
									"value": "{{lastPostID}}"
								}
							]
						}
					},
					"response": []
				}
			],
			"event": [
				{
					"listen": "prerequest",
					"script": {
						"id": "9174ee0d-3985-4059-b620-f304c52fee74",
						"type": "text/javascript",
						"exec": [
							""
						]
					}
				},
				{
					"listen": "test",
					"script": {
						"id": "71f7c3aa-3cc0-4fe9-ade1-e58706bbc1f2",
						"type": "text/javascript",
						"exec": [
							""
						]
					}
				}
			],
			"protocolProfileBehavior": {}
		},
		{
			"name": "User Friends Request",
			"item": [
				{
					"name": " Get All Users",
					"event": [
						{
							"listen": "test",
							"script": {
								"id": "4a8a8343-bcbf-444c-900c-409e0d2d627e",
								"exec": [
									"pm.test(\"Status code is 200\", function () {",
									"    pm.response.to.have.status(200);",
									"});",
									"",
									"pm.test(\"Last user is joeJ3\", function () {",
									"    pm.expect(pm.response.text()).to.include(\"joeJ3\");",
									"});",
									"",
									"tests[\"The content length of users is equal to 6\"] = pm.response.json().content.length = 6;",
									"",
									"",
									"var jsonData = pm.response.json();",
									"let len = jsonData.content.length;",
									"pm.environment.set(\"lastUserID\", len);",
									"",
									"pm.test(\"Verify response Title is as the input Title\", function(){",
									"    pm.expect(len).to.eql(pm.environment.get(\"lastUserID\"));",
									"});",
									"",
									"var jsonData = pm.response.json(); ",
									"pm.test(\"Verify Json values\", function () { ",
									"    pm.expect(jsonData.content[0].id).is.to.equal(1); ",
									"    pm.expect(jsonData.content[0].username).is.to.equal(\"mimi\"); ",
									"    pm.expect(jsonData.content[0].email).is.to.equal(\"mimoza@abv.bg\"); ",
									"});",
									"",
									"",
									"var jsonData = pm.response.json(); ",
									"pm.test(\"Verify Json values\", function () { ",
									"     pm.expect(jsonData.content[5].id).is.to.equal(6); ",
									"    pm.expect(jsonData.content[5].username).is.to.equal(\"joeJ3\"); ",
									"    pm.expect(jsonData.content[5].email).is.to.equal(\"jonjonson3@abv.bg\"); ",
									"});",
									"",
									"",
									""
								],
								"type": "text/javascript"
							}
						}
					],
					"request": {
						"method": "GET",
						"header": [],
						"url": {
							"raw": "{{baseURL}}/api/users?page=1",
							"host": [
								"{{baseURL}}"
							],
							"path": [
								"api",
								"users"
							],
							"query": [
								{
									"key": "page",
									"value": "1"
								}
							]
						}
					},
					"response": []
				},
				{
					"name": "Send Friend Request from User 4 to User 5",
					"event": [
						{
							"listen": "test",
							"script": {
								"id": "0d772c65-adb2-4677-9b3c-2cb430c8165b",
								"exec": [
									"pm.test(\"Status code is 200\", function () {",
									"    pm.response.to.have.status(200);",
									"});"
								],
								"type": "text/javascript"
							}
						}
					],
					"request": {
						"auth": {
							"type": "basic",
							"basic": [
								{
									"key": "username",
									"value": "joeJ2",
									"type": "string"
								},
								{
									"key": "password",
									"value": "asdf",
									"type": "string"
								}
							]
						},
						"method": "POST",
						"header": [],
						"url": {
							"raw": "{{baseURL}}/api/users/send-request?receiverId={{loggedUserID}}&senderID=5",
							"host": [
								"{{baseURL}}"
							],
							"path": [
								"api",
								"users",
								"send-request"
							],
							"query": [
								{
									"key": "receiverId",
									"value": "{{loggedUserID}}"
								},
								{
									"key": "senderID",
									"value": "5"
								}
							]
						}
					},
					"response": []
				},
				{
					"name": "Gets Sent Request from user",
					"event": [
						{
							"listen": "test",
							"script": {
								"id": "42c8ec31-8989-4363-90d0-7cb13dab14c1",
								"exec": [
									"pm.test(\"Status code is 200\", function () {",
									"    pm.response.to.have.status(200);",
									"});",
									"",
									"pm.test(\"User receive a new friend request\", function () {",
									"    pm.expect(pm.response.text()).to.include(\"joeJ2\");",
									"});",
									""
								],
								"type": "text/javascript"
							}
						}
					],
					"request": {
						"method": "GET",
						"header": [],
						"url": {
							"raw": "{{baseURL}}/api/users/requests?id={{loggedUserID}}",
							"host": [
								"{{baseURL}}"
							],
							"path": [
								"api",
								"users",
								"requests"
							],
							"query": [
								{
									"key": "id",
									"value": "{{loggedUserID}}"
								}
							]
						}
					},
					"response": []
				},
				{
					"name": "Accept Request",
					"event": [
						{
							"listen": "test",
							"script": {
								"id": "aa28d328-8b86-4cd5-855b-cad3f78b370d",
								"exec": [
									"pm.test(\"Status code is 200\", function () {",
									"    pm.response.to.have.status(200);",
									"});",
									""
								],
								"type": "text/javascript"
							}
						}
					],
					"request": {
						"method": "PUT",
						"header": [],
						"url": {
							"raw": "{{baseURL}}/api/users/accept-request?receiverId={{loggedUserID}}&senderId=5",
							"host": [
								"{{baseURL}}"
							],
							"path": [
								"api",
								"users",
								"accept-request"
							],
							"query": [
								{
									"key": "receiverId",
									"value": "{{loggedUserID}}"
								},
								{
									"key": "senderId",
									"value": "5"
								}
							]
						}
					},
					"response": []
				},
				{
					"name": "Get All Friends User 4",
					"event": [
						{
							"listen": "test",
							"script": {
								"id": "7aa501a4-6dd0-4ecc-b190-662742c1b83a",
								"exec": [
									"pm.test(\"Status code is 200\", function () {",
									"    pm.response.to.have.status(200);",
									"});",
									"",
									"pm.test(\"List of a friend on user contains new friend\", function () {",
									"    pm.expect(pm.response.text()).to.include(\"joeJ2\");",
									"});"
								],
								"type": "text/javascript"
							}
						}
					],
					"request": {
						"method": "GET",
						"header": [],
						"url": {
							"raw": "{{baseURL}}/api/users/friends?id={{loggedUserID}}",
							"host": [
								"{{baseURL}}"
							],
							"path": [
								"api",
								"users",
								"friends"
							],
							"query": [
								{
									"key": "id",
									"value": "{{loggedUserID}}"
								}
							]
						}
					},
					"response": []
				}
			],
			"event": [
				{
					"listen": "prerequest",
					"script": {
						"id": "0dae5ee9-af9c-4ee7-b6c1-753deee89650",
						"type": "text/javascript",
						"exec": [
							""
						]
					}
				},
				{
					"listen": "test",
					"script": {
						"id": "c02a6d8f-8f0b-4ae8-8172-c7d0ae7e9d89",
						"type": "text/javascript",
						"exec": [
							""
						]
					}
				}
			],
			"protocolProfileBehavior": {}
		},
		{
			"name": "User actions related to Like",
			"item": [
				{
					"name": "Like a Post",
					"event": [
						{
							"listen": "test",
							"script": {
								"id": "99cc8bf4-3203-4ef8-878f-b6a239d76861",
								"exec": [
									"pm.test(\"Status code is 200\", function () {",
									"    pm.response.to.have.status(200);",
									"});",
									"",
									"",
									"let URL = pm.environment.get(\"baseURL\") +\"/api/posts/likes?postId=\" + pm.environment.get(\"lastPostID\");",
									"let isPostLiked = false;",
									"let likeCounterAtEnd = null;",
									"let likeCounterAtBegin = pm.variables.get(\"likeCounterAtBegin\");",
									"",
									"",
									"pm.test(\"Verify Post Likes were increased after new Like\", function () {",
									"    ",
									"    pm.sendRequest(URL , function (err, response) {",
									"        likeCounterAtEnd = response.json().length;",
									"        ",
									"        if (likeCounterAtEnd > likeCounterAtBegin){",
									"           isPostLiked = true;",
									"        }",
									"        else {",
									"           isPostLiked = false;",
									"        }",
									"// Verifies if the Post Like Counter was incremented;",
									"        pm.expect(isPostLiked).to.be.true;",
									"    });",
									"    ",
									"});",
									""
								],
								"type": "text/javascript"
							}
						},
						{
							"listen": "prerequest",
							"script": {
								"id": "97af777f-f416-4f8f-b6d1-02b32d34254b",
								"exec": [
									"//The below script gets the length of the likes;",
									"let URL = pm.environment.get(\"baseURL\") +\"/api/posts/likes?postId=\" + pm.environment.get(\"lastPostID\");",
									"let isPostLiked = false;",
									"let likeCounterAtBegin = null;",
									"",
									"pm.sendRequest(",
									"    URL , function (err, response) {",
									"    likeCounterAtBegin = response.json().length;",
									"    pm.variables.set(\"likeCounterAtBegin\", likeCounterAtBegin);",
									"});",
									"",
									"   ",
									""
								],
								"type": "text/javascript"
							}
						}
					],
					"request": {
						"method": "PUT",
						"header": [],
						"url": {
							"raw": "{{baseURL}}/api/posts/like?postId={{lastPostID}}",
							"host": [
								"{{baseURL}}"
							],
							"path": [
								"api",
								"posts",
								"like"
							],
							"query": [
								{
									"key": "postId",
									"value": "{{lastPostID}}"
								}
							]
						}
					},
					"response": []
				},
				{
					"name": "Unlike a Post",
					"event": [
						{
							"listen": "test",
							"script": {
								"id": "e27e204a-f14a-497b-aafc-710e058a0645",
								"exec": [
									"pm.test(\"Status code is 200\", function () {",
									"    pm.response.to.have.status(200);",
									"});",
									"",
									"let URL = pm.environment.get(\"baseURL\") +\"/api/posts/likes?postId=\" + pm.environment.get(\"lastPostID\");",
									"let isPostUnliked = false;",
									"let likeCounterAtEnd = null;",
									"let likeCounterAtBegin = pm.variables.get(\"likeCounterAtBegin\");",
									"",
									"",
									"pm.test(\"Verify Post Likes were decreased after Unlike\", function () {",
									"    ",
									"    pm.sendRequest(URL , function (err, response) {",
									"        likeCounterAtEnd = response.json().length;",
									"        ",
									"        if (likeCounterAtEnd == likeCounterAtBegin){",
									"           isPostUnliked = false;",
									"        }",
									"        else {",
									"           isPostUnliked = true;",
									"        }",
									"// Verifies if the Post Like Counter was decremented;",
									"        pm.expect(isPostUnliked).to.be.true;",
									"    });",
									"    ",
									"});"
								],
								"type": "text/javascript"
							}
						},
						{
							"listen": "prerequest",
							"script": {
								"id": "633f6d7f-fd43-460a-8266-205eb42f696d",
								"exec": [
									"//The below script gets the length of the likes;",
									"let URL = pm.environment.get(\"baseURL\") +\"/api/posts/likes?postId=\" + pm.environment.get(\"lastPostID\");",
									"let likeCounterAtBegin = null;",
									"",
									"pm.sendRequest(",
									"    URL , function (err, response) {",
									"    likeCounterAtBegin = response.json().length;",
									"    pm.variables.set(\"likeCounterAtBegin\", likeCounterAtBegin);",
									"});"
								],
								"type": "text/javascript"
							}
						}
					],
					"request": {
						"method": "PUT",
						"header": [],
						"url": {
							"raw": "{{baseURL}}/api/posts/dislike?postId={{lastPostID}}",
							"host": [
								"{{baseURL}}"
							],
							"path": [
								"api",
								"posts",
								"dislike"
							],
							"query": [
								{
									"key": "postId",
									"value": "{{lastPostID}}"
								}
							]
						}
					},
					"response": []
				}
			],
			"protocolProfileBehavior": {}
		},
		{
			"name": "User actions related to Comment",
			"item": [
				{
					"name": "Create new Comment",
					"event": [
						{
							"listen": "test",
							"script": {
								"id": "38421666-1f9e-4def-9be2-b5769393b12b",
								"exec": [
									"// Sets variable lastCommentID",
									"var jsonData = pm.response.json();",
									"let lastCommentID = jsonData.id;",
									"pm.environment.set(\"lastCommentID\", lastCommentID);",
									"",
									"// Sets variable lastCommentPostID",
									"var jsonData = pm.response.json();",
									"let lastCommentPostID = jsonData.post.id;",
									"pm.environment.set(\"lastCommentPostID\", lastCommentPostID);",
									"",
									"pm.test(\"Status code is 200\", function () {",
									"    pm.response.to.have.status(200);",
									"});",
									"",
									"let URL = pm.environment.get(\"baseURL\") + \"/api/posts/comments?postId=\" + pm.environment.get(\"lastPostID\");",
									"let isCommentNumIncremented = false;",
									"let commentCounterAtEnd = null;",
									"let commentCounterAtBegin = pm.variables.get(\"commentCounterAtBegin\");",
									"",
									"",
									"pm.test(\"Verify Post Comments are increased after new Comment\", function () {",
									"    ",
									"    pm.sendRequest(URL , function (err, response) {",
									"        commentCounterAtEnd = response.json().length;",
									"        ",
									"        if (commentCounterAtEnd > commentCounterAtBegin){",
									"           isCommentNumIncremented = true;",
									"        }",
									"        else {",
									"           isCommentNumIncremented = false;",
									"        }",
									"// Verifies if the Post Comment Number was increased;",
									"        console.log(commentCounterAtEnd);",
									"        pm.expect(isCommentNumIncremented).to.be.true;",
									"    });",
									"    ",
									"});"
								],
								"type": "text/javascript"
							}
						},
						{
							"listen": "prerequest",
							"script": {
								"id": "36057110-f4b8-4c7a-911d-e45f6b1e7de1",
								"exec": [
									"let URL = pm.environment.get(\"baseURL\") +\"/api/posts/comments?postId=\" + pm.environment.get(\"lastPostID\");",
									"let commentCounterAtBegin = null;",
									"",
									"",
									"pm.sendRequest(",
									"    URL , function (err, response) {",
									"    commentCounterAtBegin = response.json().length;",
									"    pm.variables.set(\"commentCounterAtBegin\", commentCounterAtBegin);",
									"    console.log(pm.variables.get(\"commentCounterAtBegin\"));",
									"});"
								],
								"type": "text/javascript"
							}
						}
					],
					"request": {
						"method": "POST",
						"header": [
							{
								"key": "Content-Type",
								"name": "Content-Type",
								"value": "application/json",
								"type": "text"
							}
						],
						"body": {
							"mode": "raw",
							"raw": "{\r\n    \"text\": \"random Text\"\r\n}",
							"options": {
								"raw": {
									"language": "json"
								}
							}
						},
						"url": {
							"raw": "{{baseURL}}/api/posts/add-comment?postId={{lastPostID}}",
							"host": [
								"{{baseURL}}"
							],
							"path": [
								"api",
								"posts",
								"add-comment"
							],
							"query": [
								{
									"key": "postId",
									"value": "{{lastPostID}}"
								}
							]
						}
					},
					"response": []
				},
				{
					"name": "Create New Private  Post as a Friend (related to Comment Friend Post)",
					"event": [
						{
							"listen": "prerequest",
							"script": {
								"id": "7b122ea4-39b9-467b-a3de-18bdd06ae130",
								"exec": [
									""
								],
								"type": "text/javascript"
							}
						},
						{
							"listen": "test",
							"script": {
								"id": "11c48d7a-c997-40a1-8aaa-c2f374121983",
								"exec": [
									"// Creates friendPostID",
									"    var jsonData = pm.response.json();",
									"    let friendPostID = jsonData.id;",
									"    pm.environment.set(\"friendPostID\", friendPostID)",
									"",
									"",
									"// Creates privatePostID",
									"    var jsonData = pm.response.json();",
									"    let privatePostID = jsonData.id;",
									"    pm.environment.set(\"privatePostID\", privatePostID)",
									"",
									"//  Update the last Post ID",
									"let jsonDat = pm.response.json();",
									"let lastPostID = jsonDat.id;",
									"pm.environment.set(\"lastPostID\", lastPostID)"
								],
								"type": "text/javascript"
							}
						}
					],
					"request": {
						"auth": {
							"type": "basic",
							"basic": [
								{
									"key": "username",
									"value": "joeJ2",
									"type": "string"
								},
								{
									"key": "password",
									"value": "asdf",
									"type": "string"
								}
							]
						},
						"method": "POST",
						"header": [
							{
								"key": "Content-Type",
								"name": "Content-Type",
								"type": "text",
								"value": "application/json"
							}
						],
						"body": {
							"mode": "raw",
							"raw": "{\r\n  \"picture\": \"Test\",\r\n  \"text\": \"Friends text body\",\r\n  \"title\": \"Friend's Post\",\r\n  \"visible\": false\r\n}",
							"options": {
								"raw": {
									"language": "json"
								}
							}
						},
						"url": {
							"raw": "{{baseURL}}/api/posts",
							"host": [
								"{{baseURL}}"
							],
							"path": [
								"api",
								"posts"
							]
						}
					},
					"response": []
				},
				{
					"name": "Comment Friend's Private Post",
					"event": [
						{
							"listen": "prerequest",
							"script": {
								"id": "8f374bc2-43be-44ab-b36a-a1fb6bbabe1a",
								"exec": [
									"let URL = pm.environment.get(\"baseURL\") +\"/api/posts/comments?postId=\" + pm.environment.get(\"friendPostID\");",
									"let commentCounterAtBegin = null;",
									"",
									"",
									"pm.sendRequest(",
									"    URL , function (err, response) {",
									"    commentCounterAtBegin = response.json().length;",
									"    pm.variables.set(\"commentCounterAtBegin\", commentCounterAtBegin);",
									"    console.log(commentCounterAtBegin);",
									"});"
								],
								"type": "text/javascript"
							}
						},
						{
							"listen": "test",
							"script": {
								"id": "61891458-bf8d-4bf6-bf7a-d842ec4b2ab9",
								"exec": [
									"// Sets variable lastCommentID",
									"var jsonData = pm.response.json();",
									"let lastCommentID = jsonData.id;",
									"pm.environment.set(\"lastCommentID\", lastCommentID);",
									"",
									"",
									"pm.test(\"Status code is 200\", function () {",
									"    pm.response.to.have.status(200);",
									"});",
									"",
									"pm.test(\"Verify response returns correct comment text\", function () {",
									"    var jsonData = pm.response.json();",
									"    pm.expect(jsonData.text).to.eql(\"Commenting Fr Post\");",
									"});",
									"",
									"let URL = pm.environment.get(\"baseURL\") + \"/api/posts/comments?postId=\" + pm.environment.get(\"friendPostID\");",
									"let isCommentNumIncremented = false;",
									"let commentCounterAtEnd = null;",
									"let commentCounterAtBegin = pm.variables.get(\"commentCounterAtBegin\");",
									"",
									"",
									"pm.test(\"Verify Private Post Comment number is increased after new Friend's Comment\", function () {",
									"    ",
									"    pm.sendRequest(URL , function (err, response) {",
									"        commentCounterAtEnd = response.json().length;",
									"        ",
									"        if (commentCounterAtEnd > commentCounterAtBegin){",
									"           isCommentNumIncremented = true;",
									"        }",
									"        else {",
									"           isCommentNumIncremented = false;",
									"        }",
									"// Verifies if the Post Comment Number was increased;",
									"        console.log(commentCounterAtEnd);",
									"        pm.expect(isCommentNumIncremented).to.be.true;",
									"    });",
									"    ",
									"});"
								],
								"type": "text/javascript"
							}
						}
					],
					"request": {
						"method": "POST",
						"header": [
							{
								"key": "Content-Type",
								"name": "Content-Type",
								"type": "text",
								"value": "application/json"
							}
						],
						"body": {
							"mode": "raw",
							"raw": "{\r\n    \"text\": \"Commenting Fr Post\"\r\n}",
							"options": {
								"raw": {
									"language": "json"
								}
							}
						},
						"url": {
							"raw": "{{baseURL}}/api/posts/add-comment?postId={{friendPostID}}",
							"host": [
								"{{baseURL}}"
							],
							"path": [
								"api",
								"posts",
								"add-comment"
							],
							"query": [
								{
									"key": "postId",
									"value": "{{friendPostID}}"
								}
							]
						}
					},
					"response": []
				},
				{
					"name": "Create new Comment without Login",
					"event": [
						{
							"listen": "test",
							"script": {
								"id": "38421666-1f9e-4def-9be2-b5769393b12b",
								"exec": [
									"pm.test(\"Status code is 403\", function () {",
									"    pm.response.to.have.status(403);",
									"});",
									"",
									"let URL = pm.environment.get(\"baseURL\") + \"/api/posts/comments?postId=\" + pm.environment.get(\"lastPostID\");",
									"let isCommentNumIncremented = false;",
									"let commentCounterAtEnd = null;",
									"let commentCounterAtBegin = pm.variables.get(\"commentCounterAtBegin\");",
									"",
									"",
									"pm.test(\"Verify Post Comments are not increased after new Comment without Login\", function () {",
									"    ",
									"    pm.sendRequest(URL , function (err, response) {",
									"        commentCounterAtEnd = response.json().length;",
									"        ",
									"        if (commentCounterAtEnd === commentCounterAtBegin){",
									"           isCommentNumIncremented = false;",
									"        }",
									"        else {",
									"           isCommentNumIncremented = true;",
									"        }",
									"// Verifies if the Post Comment Number was not increased;",
									"",
									"        pm.expect(isCommentNumIncremented).to.be.false;",
									"    });",
									"    ",
									"});"
								],
								"type": "text/javascript"
							}
						},
						{
							"listen": "prerequest",
							"script": {
								"id": "ea404394-0c83-4e9c-a20b-4f5e404d321e",
								"exec": [
									"let URL = pm.environment.get(\"baseURL\") +\"/api/posts/comments?postId=\" + pm.environment.get(\"lastPostID\");",
									"let commentCounterAtBegin = null;",
									"",
									"pm.sendRequest(",
									"    URL , function (err, response) {",
									"    commentCounterAtBegin = response.json().length;",
									"    pm.variables.set(\"commentCounterAtBegin\", commentCounterAtBegin);",
									"",
									"});"
								],
								"type": "text/javascript"
							}
						}
					],
					"request": {
						"auth": {
							"type": "noauth"
						},
						"method": "POST",
						"header": [
							{
								"key": "Content-Type",
								"name": "Content-Type",
								"value": "application/json",
								"type": "text"
							}
						],
						"body": {
							"mode": "raw",
							"raw": "{\r\n    \"text\": \"random Text\"\r\n}",
							"options": {
								"raw": {
									"language": "json"
								}
							}
						},
						"url": {
							"raw": "{{baseURL}}/api/posts/add-comment?postId={{lastPostID}}",
							"host": [
								"{{baseURL}}"
							],
							"path": [
								"api",
								"posts",
								"add-comment"
							],
							"query": [
								{
									"key": "postId",
									"value": "{{lastPostID}}"
								}
							]
						}
					},
					"response": []
				},
				{
					"name": "Delete Own Comment",
					"event": [
						{
							"listen": "prerequest",
							"script": {
								"id": "6b00800a-d206-4e01-9a45-46319f8ef8d4",
								"exec": [
									"let URL = pm.environment.get(\"baseURL\") +\"/api/posts/comments?postId=\" + pm.environment.get(\"lastPostID\");",
									"let commentCounterAtBegin = null;",
									"",
									"",
									"pm.sendRequest(",
									"    URL , function (err, response) {",
									"    commentCounterAtBegin = response.json().length;",
									"    pm.variables.set(\"commentCounterAtBegin\", commentCounterAtBegin);",
									"});"
								],
								"type": "text/javascript"
							}
						},
						{
							"listen": "test",
							"script": {
								"id": "bb5267e2-d0f8-4140-8575-3080deb3fb93",
								"exec": [
									"pm.test(\"Status code is 200\", function () {",
									"    pm.response.to.have.status(200);",
									"});",
									"",
									"// let URL = pm.environment.get(\"baseURL\") + \"/api/posts/comments?postId=\" + pm.environment.get(\"lastPostID\");",
									"// let isCommentNumDecremented = false;",
									"// let commentCounterAtEnd = null;",
									"// let commentCounterAtBegin = pm.variables.get(\"commentCounterAtBegin\");",
									"",
									"",
									"// pm.test(\"Verify Post Comments are decreased after Delete own Comment\", function () {",
									"    ",
									"//     pm.sendRequest(URL , function (err, response) {",
									"//         commentCounterAtEnd = response.json().length;",
									"        ",
									"//         if (commentCounterAtEnd < commentCounterAtBegin){",
									"//           isCommentNumDecremented = true;",
									"//         }",
									"//         else {",
									"//           isCommentNumDecremented = false;",
									"//         }",
									"// // Verifies if the Post Comment Number was increased;",
									"//         pm.expect(isCommentNumDecremented).to.be.true;",
									"//     });",
									"    ",
									"// });"
								],
								"type": "text/javascript"
							}
						}
					],
					"request": {
						"method": "DELETE",
						"header": [],
						"url": {
							"raw": "{{baseURL}}/api/comments?commentId={{lastCommentID}}",
							"host": [
								"{{baseURL}}"
							],
							"path": [
								"api",
								"comments"
							],
							"query": [
								{
									"key": "commentId",
									"value": "{{lastCommentID}}"
								}
							]
						}
					},
					"response": []
				},
				{
					"name": "Create new Comment (related to Delete Comment without Login)",
					"event": [
						{
							"listen": "test",
							"script": {
								"id": "38421666-1f9e-4def-9be2-b5769393b12b",
								"exec": [
									"// Sets variable lastCommentID",
									"var jsonData = pm.response.json();",
									"let lastCommentID = jsonData.id;",
									"pm.environment.set(\"lastCommentID\", lastCommentID);",
									"",
									"// Sets variable lastCommentPostID",
									"var jsonData = pm.response.json();",
									"let lastCommentPostID = jsonData.post.id;",
									"pm.environment.set(\"lastCommentPostID\", lastCommentPostID);",
									"",
									"pm.test(\"Status code is 200\", function () {",
									"    pm.response.to.have.status(200);",
									"});",
									"",
									"let URL = pm.environment.get(\"baseURL\") + \"/api/posts/comments?postId=\" + pm.environment.get(\"lastPostID\");",
									"let isCommentNumIncremented = false;",
									"let commentCounterAtEnd = null;",
									"let commentCounterAtBegin = pm.variables.get(\"commentCounterAtBegin\");",
									"",
									"",
									"pm.test(\"Verify Post Comments are increased after new Comment\", function () {",
									"    ",
									"    pm.sendRequest(URL , function (err, response) {",
									"        commentCounterAtEnd = response.json().length;",
									"        ",
									"        if (commentCounterAtEnd > commentCounterAtBegin){",
									"           isCommentNumIncremented = true;",
									"        }",
									"        else {",
									"           isCommentNumIncremented = false;",
									"        }",
									"// Verifies if the Post Comment Number was increased;",
									"        console.log(commentCounterAtEnd);",
									"        pm.expect(isCommentNumIncremented).to.be.true;",
									"    });",
									"    ",
									"});"
								],
								"type": "text/javascript"
							}
						},
						{
							"listen": "prerequest",
							"script": {
								"id": "36057110-f4b8-4c7a-911d-e45f6b1e7de1",
								"exec": [
									"let URL = pm.environment.get(\"baseURL\") +\"/api/posts/comments?postId=\" + pm.environment.get(\"lastPostID\");",
									"let commentCounterAtBegin = null;",
									"",
									"",
									"pm.sendRequest(",
									"    URL , function (err, response) {",
									"    commentCounterAtBegin = response.json().length;",
									"    pm.variables.set(\"commentCounterAtBegin\", commentCounterAtBegin);",
									"    console.log(pm.variables.get(\"commentCounterAtBegin\"));",
									"});"
								],
								"type": "text/javascript"
							}
						}
					],
					"request": {
						"method": "POST",
						"header": [
							{
								"key": "Content-Type",
								"name": "Content-Type",
								"value": "application/json",
								"type": "text"
							}
						],
						"body": {
							"mode": "raw",
							"raw": "{\r\n    \"text\": \"random Text\"\r\n}",
							"options": {
								"raw": {
									"language": "json"
								}
							}
						},
						"url": {
							"raw": "{{baseURL}}/api/posts/add-comment?postId={{lastPostID}}",
							"host": [
								"{{baseURL}}"
							],
							"path": [
								"api",
								"posts",
								"add-comment"
							],
							"query": [
								{
									"key": "postId",
									"value": "{{lastPostID}}"
								}
							]
						}
					},
					"response": []
				},
				{
					"name": "Delete Own Comment without Login",
					"event": [
						{
							"listen": "prerequest",
							"script": {
								"id": "6b00800a-d206-4e01-9a45-46319f8ef8d4",
								"exec": [
									"let URL = pm.environment.get(\"baseURL\") +\"/api/posts/comments?postId=\" + pm.environment.get(\"lastPostID\");",
									"let commentCounterAtBegin = null;",
									"",
									"",
									"pm.sendRequest(",
									"    URL , function (err, response) {",
									"    commentCounterAtBegin = response.json().length;",
									"    pm.variables.set(\"commentCounterAtBegin\", commentCounterAtBegin);",
									"});"
								],
								"type": "text/javascript"
							}
						},
						{
							"listen": "test",
							"script": {
								"id": "bb5267e2-d0f8-4140-8575-3080deb3fb93",
								"exec": [
									"pm.test(\"Status code is 403\", function () {",
									"    pm.response.to.have.status(403);",
									"});",
									"",
									"// let URL = pm.environment.get(\"baseURL\") + \"/api/posts/comments?postId=\" + pm.environment.get(\"lastPostID\");",
									"// let isCommentNumIncremented = false;",
									"// let commentCounterAtEnd = null;",
									"// let commentCounterAtBegin = pm.variables.get(\"commentCounterAtBegin\");",
									"",
									"",
									"// pm.test(\"Verify Post Comments are decreased after Delete own Comment\", function () {",
									"    ",
									"//     pm.sendRequest(URL , function (err, response) {",
									"//         commentCounterAtEnd = response.json().length;",
									"        ",
									"//         if (commentCounterAtEnd < commentCounterAtBegin){",
									"//           isPostDecremented = true;",
									"//         }",
									"//         else {",
									"//           isCommentNumIncremented = false;",
									"//         }",
									"// // Verifies if the Post Comment Number was increased;",
									"//         pm.expect(isCommentNumIncremented).to.be.true;",
									"//     });",
									"    ",
									"// });"
								],
								"type": "text/javascript"
							}
						}
					],
					"request": {
						"auth": {
							"type": "noauth"
						},
						"method": "DELETE",
						"header": [],
						"url": {
							"raw": "{{baseURL}}/api/comments?commentId={{lastCommentID}}",
							"host": [
								"{{baseURL}}"
							],
							"path": [
								"api",
								"comments"
							],
							"query": [
								{
									"key": "commentId",
									"value": "{{lastCommentID}}"
								}
							]
						}
					},
					"response": []
				},
				{
					"name": "Create new Comment as a Friend",
					"event": [
						{
							"listen": "test",
							"script": {
								"id": "38421666-1f9e-4def-9be2-b5769393b12b",
								"exec": [
									"// Sets variable lastCommentID",
									"var jsonData = pm.response.json();",
									"let lastCommentID = jsonData.id;",
									"pm.environment.set(\"lastCommentID\", lastCommentID);",
									"",
									"// Sets variable lastCommentPostID",
									"var jsonData = pm.response.json();",
									"let lastCommentPostID = jsonData.post.id;",
									"pm.environment.set(\"lastCommentPostID\", lastCommentPostID);",
									"",
									"pm.test(\"Status code is 200\", function () {",
									"    pm.response.to.have.status(200);",
									"});",
									"",
									"let URL = pm.environment.get(\"baseURL\") + \"/api/posts/comments?postId=\" + pm.environment.get(\"lastPostID\");",
									"let isCommentNumIncremented = false;",
									"let commentCounterAtEnd = null;",
									"let commentCounterAtBegin = pm.variables.get(\"commentCounterAtBegin\");",
									"",
									"",
									"pm.test(\"Verify Post Comments are increased after new Comment\", function () {",
									"    ",
									"    pm.sendRequest(URL , function (err, response) {",
									"        commentCounterAtEnd = response.json().length;",
									"        ",
									"        if (commentCounterAtEnd > commentCounterAtBegin){",
									"           isCommentNumIncremented = true;",
									"        }",
									"        else {",
									"           isCommentNumIncremented = false;",
									"        }",
									"// Verifies if the Post Comment Number was increased;",
									"        console.log(commentCounterAtEnd);",
									"        pm.expect(isCommentNumIncremented).to.be.true;",
									"    });",
									"    ",
									"});"
								],
								"type": "text/javascript"
							}
						},
						{
							"listen": "prerequest",
							"script": {
								"id": "36057110-f4b8-4c7a-911d-e45f6b1e7de1",
								"exec": [
									"let URL = pm.environment.get(\"baseURL\") +\"/api/posts/comments?postId=\" + pm.environment.get(\"lastPostID\");",
									"let commentCounterAtBegin = null;",
									"",
									"",
									"pm.sendRequest(",
									"    URL , function (err, response) {",
									"    commentCounterAtBegin = response.json().length;",
									"    pm.variables.set(\"commentCounterAtBegin\", commentCounterAtBegin);",
									"    console.log(pm.variables.get(\"commentCounterAtBegin\"));",
									"});"
								],
								"type": "text/javascript"
							}
						}
					],
					"request": {
						"method": "POST",
						"header": [
							{
								"key": "Content-Type",
								"name": "Content-Type",
								"type": "text",
								"value": "application/json"
							}
						],
						"body": {
							"mode": "raw",
							"raw": "{\r\n    \"text\": \"Friend Comment\"\r\n}",
							"options": {
								"raw": {
									"language": "json"
								}
							}
						},
						"url": {
							"raw": "{{baseURL}}/api/posts/add-comment?postId={{lastPostID}}",
							"host": [
								"{{baseURL}}"
							],
							"path": [
								"api",
								"posts",
								"add-comment"
							],
							"query": [
								{
									"key": "postId",
									"value": "{{lastPostID}}"
								}
							]
						}
					},
					"response": []
				},
				{
					"name": "Delete not Owned Comment",
					"event": [
						{
							"listen": "test",
							"script": {
								"id": "a16e27a9-05cc-428b-9244-dce301ee4ed7",
								"exec": [
									"pm.test(\"Status code is 403\", function () {",
									"    pm.response.to.have.status(401);",
									"});",
									"",
									"// let URL = pm.environment.get(\"baseURL\") + \"/api/posts/comments?postId=\" + pm.environment.get(\"lastPostID\");",
									"// let isCommentNumIncremented = false;",
									"// let commentCounterAtEnd = null;",
									"// let commentCounterAtBegin = pm.variables.get(\"commentCounterAtBegin\");",
									"",
									"",
									"// pm.test(\"Verify Post Comments are decreased after Delete own Comment\", function () {",
									"    ",
									"//     pm.sendRequest(URL , function (err, response) {",
									"//         commentCounterAtEnd = response.json().length;",
									"        ",
									"//         if (commentCounterAtEnd < commentCounterAtBegin){",
									"//           isPostDecremented = true;",
									"//         }",
									"//         else {",
									"//           isCommentNumIncremented = false;",
									"//         }",
									"// // Verifies if the Post Comment Number was increased;",
									"//         pm.expect(isCommentNumIncremented).to.be.true;",
									"//     });",
									"    ",
									"// });"
								],
								"type": "text/javascript"
							}
						},
						{
							"listen": "prerequest",
							"script": {
								"id": "5787d03c-004b-4f72-ab69-60c8fa091610",
								"exec": [
									"let URL = pm.environment.get(\"baseURL\") +\"/api/posts/comments?postId=\" + pm.environment.get(\"lastPostID\");",
									"let commentCounterAtBegin = null;",
									"",
									"",
									"pm.sendRequest(",
									"    URL , function (err, response) {",
									"    commentCounterAtBegin = response.json().length;",
									"    pm.variables.set(\"commentCounterAtBegin\", commentCounterAtBegin);",
									"});"
								],
								"type": "text/javascript"
							}
						}
					],
					"request": {
						"auth": {
							"type": "basic",
							"basic": [
								{
									"key": "username",
									"value": "joeJ3",
									"type": "string"
								},
								{
									"key": "password",
									"value": "asdf",
									"type": "string"
								}
							]
						},
						"method": "DELETE",
						"header": [],
						"url": {
							"raw": "{{baseURL}}/api/comments?commentId={{lastCommentID}}",
							"host": [
								"{{baseURL}}"
							],
							"path": [
								"api",
								"comments"
							],
							"query": [
								{
									"key": "commentId",
									"value": "{{lastCommentID}}"
								}
							]
						}
					},
					"response": []
				},
				{
					"name": "Comment not Friend Private Post",
					"event": [
						{
							"listen": "test",
							"script": {
								"id": "38421666-1f9e-4def-9be2-b5769393b12b",
								"exec": [
									"// Sets variable lastCommentID",
									"var jsonData = pm.response.json();",
									"let lastCommentID = jsonData.id;",
									"pm.environment.set(\"lastCommentID\", lastCommentID);",
									"",
									"// Sets variable lastCommentPostID",
									"var jsonData = pm.response.json();",
									"let lastCommentPostID = jsonData.post.id;",
									"pm.environment.set(\"lastCommentPostID\", lastCommentPostID);",
									"",
									"pm.test(\"Status code is 401\", function () {",
									"    pm.response.to.have.status(403);",
									"});",
									"",
									"let URL = pm.environment.get(\"baseURL\") + \"/api/posts/comments?postId=\" + pm.environment.get(\"lastPostID\");",
									"let isCommentNumIncremented = false;",
									"let commentCounterAtEnd = null;",
									"let commentCounterAtBegin = pm.variables.get(\"commentCounterAtBegin\");",
									"",
									"",
									"pm.test(\"Verify Private Post Comments are not increased after new Comment of non Friend\", function () {",
									"    ",
									"    pm.sendRequest(URL , function (err, response) {",
									"        commentCounterAtEnd = response.json().length;",
									"        ",
									"        if (commentCounterAtEnd > commentCounterAtBegin){",
									"           isCommentNumIncremented = true;",
									"        }",
									"        else {",
									"           isCommentNumIncremented = false;",
									"        }",
									"// Verifies if the Post Comment Number was increased;",
									"        console.log(commentCounterAtEnd);",
									"        pm.expect(isCommentNumIncremented).to.be.false;",
									"    });",
									"    ",
									"});"
								],
								"type": "text/javascript"
							}
						},
						{
							"listen": "prerequest",
							"script": {
								"id": "36057110-f4b8-4c7a-911d-e45f6b1e7de1",
								"exec": [
									"let URL = pm.environment.get(\"baseURL\") +\"/api/posts/comments?postId=\" + pm.environment.get(\"lastPostID\");",
									"let commentCounterAtBegin = null;",
									"",
									"",
									"pm.sendRequest(",
									"    URL , function (err, response) {",
									"    commentCounterAtBegin = response.json().length;",
									"    pm.variables.set(\"commentCounterAtBegin\", commentCounterAtBegin);",
									"    console.log(pm.variables.get(\"commentCounterAtBegin\"));",
									"});"
								],
								"type": "text/javascript"
							}
						}
					],
					"request": {
						"auth": {
							"type": "basic",
							"basic": [
								{
									"key": "username",
									"value": "joeJ3",
									"type": "string"
								},
								{
									"key": "password",
									"value": "asdf",
									"type": "string"
								}
							]
						},
						"method": "POST",
						"header": [
							{
								"key": "Content-Type",
								"name": "Content-Type",
								"type": "text",
								"value": "application/json"
							}
						],
						"body": {
							"mode": "raw",
							"raw": "{\r\n    \"text\": \"Non Friend Text\"\r\n}",
							"options": {
								"raw": {
									"language": "json"
								}
							}
						},
						"url": {
							"raw": "{{baseURL}}/api/posts/add-comment?postId={{lastPostID}}",
							"host": [
								"{{baseURL}}"
							],
							"path": [
								"api",
								"posts",
								"add-comment"
							],
							"query": [
								{
									"key": "postId",
									"value": "{{lastPostID}}"
								}
							]
						}
					},
					"response": []
				}
			],
			"protocolProfileBehavior": {}
		},
		{
			"name": "Delete Post",
			"item": [
				{
					"name": "Get All Posts Before Unauthorized Attempt for Delete",
					"event": [
						{
							"listen": "test",
							"script": {
								"id": "2cbe985d-d977-4451-95ca-29fb4e84ad32",
								"exec": [
									"pm.test(\"Status code is 200\", function () {",
									"    pm.response.to.have.status(200);",
									"});",
									"",
									"// The below script sets in variable the number of already created posts and the variable will be used as a comparison in the \"Get All Posts After Unauthorized Attempt\" to verify that the number of posts is the same before and after the deletion.",
									"var jsonData = pm.response.json();",
									"let len = jsonData.length;",
									"pm.environment.set(\"numPostsBeforeDelete\", len);",
									"",
									"",
									"",
									"",
									"",
									"",
									""
								],
								"type": "text/javascript"
							}
						}
					],
					"request": {
						"method": "GET",
						"header": [],
						"url": {
							"raw": "{{baseURL}}/api/posts",
							"host": [
								"{{baseURL}}"
							],
							"path": [
								"api",
								"posts"
							]
						}
					},
					"response": []
				},
				{
					"name": "Delete Post without Login",
					"event": [
						{
							"listen": "test",
							"script": {
								"id": "b32d517c-5f04-4fc3-ba21-ba7e0233a14f",
								"exec": [
									"pm.test(\"Status code is 401\", function () {",
									"    pm.response.to.have.status(401);",
									"});",
									"",
									"",
									"// let URL = pm.environment.get(\"baseURL\") + \"/api/posts?postId=\" + pm.environment.get(\"lastPostID\");",
									"// let isNumPostsDecreased = false;",
									"// let numPostAtEnd = null;",
									"// let numPostAtBegin = pm.variables.get(\"numPostsBeforeDelete\");",
									"",
									"// pm.test(\"Verify Private Post not Deleted without Login\", function () {",
									"    ",
									"//     pm.sendRequest(URL , function (err, response) {",
									"//         numPostAtEnd = response.json().length;",
									"        ",
									"//         if (numPostAtEnd = numPostAtBegin){",
									"//           isNumPostsDecreased = false;",
									"//         }",
									"//         else {",
									"//           isNumPostsDecreased = true;",
									"//         }",
									"// // Verifies if the Post Comment Number was increased;",
									"//         console.log(numPostAtEnd);",
									"//         pm.expect(isNumPostsDecreased).to.be.false;",
									"//     });",
									"    ",
									"// });"
								],
								"type": "text/javascript"
							}
						},
						{
							"listen": "prerequest",
							"script": {
								"id": "d7d87df9-5978-4ec5-95c7-a2b81d95d478",
								"exec": [
									""
								],
								"type": "text/javascript"
							}
						}
					],
					"request": {
						"auth": {
							"type": "noauth"
						},
						"method": "DELETE",
						"header": [],
						"body": {
							"mode": "raw",
							"raw": ""
						},
						"url": {
							"raw": "{{baseURL}}/api/posts?postId={{lastPostID}}",
							"host": [
								"{{baseURL}}"
							],
							"path": [
								"api",
								"posts"
							],
							"query": [
								{
									"key": "postId",
									"value": "{{lastPostID}}"
								}
							]
						}
					},
					"response": []
				},
				{
					"name": "Create New Post as not Friend (related to Delete Last Owned Post)",
					"event": [
						{
							"listen": "prerequest",
							"script": {
								"id": "7b122ea4-39b9-467b-a3de-18bdd06ae130",
								"exec": [
									""
								],
								"type": "text/javascript"
							}
						},
						{
							"listen": "test",
							"script": {
								"id": "11c48d7a-c997-40a1-8aaa-c2f374121983",
								"exec": [
									"",
									"//  Update the last Post ID",
									"let jsonDat = pm.response.json();",
									"let lastPostID = jsonDat.id;",
									"pm.environment.set(\"lastPostID\", lastPostID)"
								],
								"type": "text/javascript"
							}
						}
					],
					"request": {
						"auth": {
							"type": "basic",
							"basic": [
								{
									"key": "username",
									"value": "joeJ2",
									"type": "string"
								},
								{
									"key": "password",
									"value": "asdf",
									"type": "string"
								}
							]
						},
						"method": "POST",
						"header": [
							{
								"key": "Content-Type",
								"name": "Content-Type",
								"type": "text",
								"value": "application/json"
							}
						],
						"body": {
							"mode": "raw",
							"raw": "{\r\n  \"picture\": \"Test\",\r\n  \"text\": \"Friends text body\",\r\n  \"title\": \"Friend's Post\",\r\n  \"visible\": false\r\n}",
							"options": {
								"raw": {
									"language": "json"
								}
							}
						},
						"url": {
							"raw": "{{baseURL}}/api/posts",
							"host": [
								"{{baseURL}}"
							],
							"path": [
								"api",
								"posts"
							]
						}
					},
					"response": []
				},
				{
					"name": "Delete Last Own Post",
					"event": [
						{
							"listen": "test",
							"script": {
								"id": "b32d517c-5f04-4fc3-ba21-ba7e0233a14f",
								"exec": [
									"pm.test(\"Status code is 200\", function () {",
									"    pm.response.to.have.status(200);",
									"});",
									"",
									"",
									"",
									""
								],
								"type": "text/javascript"
							}
						},
						{
							"listen": "prerequest",
							"script": {
								"id": "d7d87df9-5978-4ec5-95c7-a2b81d95d478",
								"exec": [
									""
								],
								"type": "text/javascript"
							}
						}
					],
					"request": {
						"auth": {
							"type": "basic",
							"basic": [
								{
									"key": "username",
									"value": "joeJ2",
									"type": "string"
								},
								{
									"key": "password",
									"value": "asdf",
									"type": "string"
								}
							]
						},
						"method": "DELETE",
						"header": [],
						"url": {
							"raw": "{{baseURL}}/api/posts?postId={{lastPostID}}",
							"host": [
								"{{baseURL}}"
							],
							"path": [
								"api",
								"posts"
							],
							"query": [
								{
									"key": "postId",
									"value": "{{lastPostID}}"
								}
							]
						}
					},
					"response": []
				},
				{
					"name": "Create New Post as not Friend (related to Delete not Owned Post)",
					"event": [
						{
							"listen": "prerequest",
							"script": {
								"id": "7b122ea4-39b9-467b-a3de-18bdd06ae130",
								"exec": [
									""
								],
								"type": "text/javascript"
							}
						},
						{
							"listen": "test",
							"script": {
								"id": "11c48d7a-c997-40a1-8aaa-c2f374121983",
								"exec": [
									"",
									"//  Update the last Post ID",
									"let jsonDat = pm.response.json();",
									"let lastPostID = jsonDat.id;",
									"pm.environment.set(\"lastPostID\", lastPostID)"
								],
								"type": "text/javascript"
							}
						}
					],
					"request": {
						"auth": {
							"type": "basic",
							"basic": [
								{
									"key": "username",
									"value": "joeJ2",
									"type": "string"
								},
								{
									"key": "password",
									"value": "asdf",
									"type": "string"
								}
							]
						},
						"method": "POST",
						"header": [
							{
								"key": "Content-Type",
								"name": "Content-Type",
								"type": "text",
								"value": "application/json"
							}
						],
						"body": {
							"mode": "raw",
							"raw": "{\r\n  \"picture\": \"Test\",\r\n  \"text\": \"Friends text body\",\r\n  \"title\": \"Friend's Post\",\r\n  \"visible\": false\r\n}",
							"options": {
								"raw": {
									"language": "json"
								}
							}
						},
						"url": {
							"raw": "{{baseURL}}/api/posts",
							"host": [
								"{{baseURL}}"
							],
							"path": [
								"api",
								"posts"
							]
						}
					},
					"response": []
				},
				{
					"name": "Delete not Owned Post",
					"event": [
						{
							"listen": "test",
							"script": {
								"id": "b32d517c-5f04-4fc3-ba21-ba7e0233a14f",
								"exec": [
									"pm.test(\"Status code is 401\", function () {",
									"    pm.response.to.have.status(401);",
									"});",
									""
								],
								"type": "text/javascript"
							}
						},
						{
							"listen": "prerequest",
							"script": {
								"id": "d7d87df9-5978-4ec5-95c7-a2b81d95d478",
								"exec": [
									""
								],
								"type": "text/javascript"
							}
						}
					],
					"request": {
						"auth": {
							"type": "basic",
							"basic": [
								{
									"key": "username",
									"value": "joeJ3",
									"type": "string"
								},
								{
									"key": "password",
									"value": "asdf",
									"type": "string"
								}
							]
						},
						"method": "DELETE",
						"header": [],
						"body": {
							"mode": "raw",
							"raw": ""
						},
						"url": {
							"raw": "{{baseURL}}/api/posts?postId={{lastPostID}}",
							"host": [
								"{{baseURL}}"
							],
							"path": [
								"api",
								"posts"
							],
							"query": [
								{
									"key": "postId",
									"value": "{{lastPostID}}"
								}
							]
						}
					},
					"response": []
				}
			],
			"protocolProfileBehavior": {}
		}
	],
	"auth": {
		"type": "basic",
		"basic": [
			{
				"key": "username",
				"value": "joeJ1",
				"type": "string"
			},
			{
				"key": "password",
				"value": "asdf",
				"type": "string"
			}
		]
	},
	"event": [
		{
			"listen": "prerequest",
			"script": {
				"id": "105aaba6-1cd1-44d3-a586-a0989d5d7f59",
				"type": "text/javascript",
				"exec": [
					"let random = Math.random().toString(32).substring(7);",
					"",
					"let postTitle = \"PT \"+random;",
					"pm.environment.set(\"postTitle\", postTitle);",
					"",
					"let postText = \"Post Text \"+random;",
					"pm.environment.set(\"postText\", postText);",
					"",
					"let commentText = \"CT \"+random;",
					"pm.environment.set(\"commentText\", commentText);"
				]
			}
		},
		{
			"listen": "test",
			"script": {
				"id": "9f93b5c4-3754-4dc7-a196-fb7e19205441",
				"type": "text/javascript",
				"exec": [
					""
				]
			}
		}
	],
	"variable": [
		{
			"id": "ccb23510-fff0-48ea-b5d3-c08e4e31a0ef",
			"key": "User1email",
			"value": "jonjonson1@abv.bg",
			"type": "string"
		},
		{
			"id": "205c576f-b061-4999-a1be-1ce44fdb3ad9",
			"key": "User2email",
			"value": "jonjonson2@abv.bg",
			"type": "string"
		},
		{
			"id": "69d7bca0-76da-4fc2-a2d2-fb8ad7bca9aa",
			"key": "User3email",
			"value": "jonjonson3@abv.bg",
			"type": "string"
		},
		{
			"id": "990d95dc-fd0a-4e94-b71a-37de03b4c23e",
			"key": "User4email",
			"value": "jonjonson075@gmail.com",
			"type": "string"
		},
		{
			"id": "4c1ebe8a-5ad2-429e-958c-0e0c2ab9373a",
			"key": "User5emial",
			"value": "jonsonjon117@yahoo.com",
			"type": "string"
		},
		{
			"id": "6c57c993-c7a7-4ee4-bf3c-0a1e8342eda2",
			"key": "User1username",
			"value": "joeJ1",
			"type": "string"
		},
		{
			"id": "a93fb8a0-605d-4511-9630-dc818703bfb0",
			"key": "User2username",
			"value": "joeJ2",
			"type": "string"
		},
		{
			"id": "b48ef9f1-8f99-4528-b571-6ee490c882c8",
			"key": "User3username",
			"value": "joeJ3",
			"type": "string"
		},
		{
			"id": "4eeee02b-dfbc-4f3f-83c0-8f289467c69b",
			"key": "User4username",
			"value": "joeJ4",
			"type": "string"
		},
		{
			"id": "1c02c85b-90b0-42e2-9df3-76d9ff285e96",
			"key": "User5username",
			"value": "joeJ5",
			"type": "string"
		},
		{
			"id": "d4ca1bd4-1c77-4240-8333-9c0bc42ec7ef",
			"key": "mockUserPassword",
			"value": "asdf",
			"type": "string"
		}
	],
	"protocolProfileBehavior": {}
}